<?xml version="1.0" encoding="utf-8"?>
<!-- Generator: Adobe Illustrator 21.1.0, SVG Export Plug-In . SVG Version: 6.00 Build 0)  -->
<svg version="1.1" id="Layer_1" xmlns="http://www.w3.org/2000/svg" xmlns:xlink="http://www.w3.org/1999/xlink" x="0px" y="0px"
	 viewBox="0 0 87.5173 80.3367" style="enable-background:new 0 0 87.5173 80.3367;" xml:space="preserve">
<style type="text/css">
	.st0{fill:#6D50BA;}
	.st1{fill:none;stroke:#6D50BA;stroke-width:3;stroke-miterlimit:10;}
	.st2{fill:#FFFFFF;}
</style>
<g>
	<path class="st0" d="M24.8423,78.9794c1.3109-1.3101,3.6253-5.5606,5.0776-10.1415c0.8431-2.6601,1.5336-5.8959,1.152-8.6478
		c2.1077,1.1552,4.4788,1.7747,6.9481,1.7747c3.8736,0,7.5141-1.5081,10.2533-4.2473l11.7582-11.7574
		c4.6512-4.6528,5.4671-11.7031,2.4613-17.2046c2.7535,0.3848,5.9965-0.305,8.6598-1.1496
		c4.5802-1.4522,8.8314-3.7675,10.1415-5.0776c0.5261-0.5269,0.7305-1.2223,0.5589-1.9113
		c-0.6036-2.4278-6.8435-4.7726-10.9215-6.0611c-1.2885-4.0772-3.6333-10.3188-6.0619-10.9231
		c-0.6882-0.1716-1.3843,0.0319-1.9121,0.5589c-1.6869,1.6885-6.3166,10.5559-6.3166,17.1743c0,0.5604,0.0327,1.1049,0.1046,1.6271
		c-2.1117-1.1608-4.49-1.7835-6.9673-1.7835c-3.8736-0.0008-7.5141,1.5081-10.2525,4.2465L27.7683,37.2118
		c-2.7392,2.7392-4.2473,6.3805-4.2465,10.2533c0,2.4765,0.6227,4.8556,1.7827,6.9673c-6.6926-0.9109-16.9683,4.3814-18.7989,6.212
		c-0.4048,0.4056-0.6179,0.9093-0.6179,1.4331c0,0.1589,0.0192,0.3177,0.0591,0.479c0.6036,2.4278,6.8435,4.7734,10.9215,6.0627
		c1.2885,4.0756,3.6333,10.3164,6.0619,10.9215C23.6193,79.7107,24.3154,79.5071,24.8423,78.9794z M61.8765,35.7077
		c0,3.1-1.18,6.2-3.5391,8.5592l-5.3578,5.3578V24.0413c2.0063,0.5477,3.8481,1.5983,5.3578,3.108
		C60.6974,29.5084,61.8765,32.6084,61.8765,35.7077z M64.4672,6.0862c1.0147,0.8942,2.9659,5.234,4.363,9.7775
		c0.1166,0.38,0.4136,0.677,0.7928,0.7928c4.5411,1.3963,8.8777,3.3459,9.7751,4.3606c-1.2327,1.0371-4.9722,3.037-8.9703,4.3055
		c-4.8923,1.5512-8.6103,1.5297-10.2014-0.0615C56.494,21.532,62.1935,8.7463,64.4672,6.0862z M41.2198,27.1493
		c2.2857-2.2865,5.3258-3.5447,8.5592-3.5447c0.2714,0,0.5381,0.0216,0.8063,0.0391v28.376l-4.0046,4.0046
		c-2.5763,2.5763-6.0332,3.7363-9.4102,3.4992L37.169,31.2001L41.2198,27.1493z M29.4632,38.9051l5.3107-5.3099l0.0016,25.5195
		c-1.9464-0.5381-3.785-1.5624-5.3123-3.0904C24.7425,51.3036,24.7441,43.6242,29.4632,38.9051z M18.9704,67.3098
		c-0.1166-0.3808-0.4135-0.677-0.7928-0.7936c-4.5411-1.3955-8.8777-3.3475-9.7751-4.3614
		c1.2327-1.0371,4.9722-3.0378,8.9703-4.3071c4.8931-1.5512,8.6111-1.5281,10.203,0.0623c0.8063,0.8063,1.2095,2.1596,1.2095,3.9343
		c0,1.7276-0.3824,3.8545-1.148,6.2687c-1.2686,3.9998-3.2677,7.7369-4.3055,8.9719
		C22.3171,76.1884,20.3667,71.8509,18.9704,67.3098z"/>
</g>
</svg>
